processor/alu/sra/sra_barrel_shifter_wave.vcd
$date
	Tue Jan 18 19:44:04 2022
$end
$version
	Icarus Verilog
$end
$timescale
	100ps
$end
$scope module sra_barrel_shifter_tb $end
$var wire 32 ! data_in [31:0] $end
$var wire 32 " data_out [31:0] $end
$var wire 5 # ctrl_shiftamt [4:0] $end
$var integer 32 $ i [31:0] $end
$scope module shifter $end
$var wire 5 % ctrl_shiftamt [4:0] $end
$var wire 32 & data_in [31:0] $end
$var wire 32 ' shift_8_out [31:0] $end
$var wire 32 ( shift_4_out [31:0] $end
$var wire 32 ) shift_2_out [31:0] $end
$var wire 32 * shift_1_out [31:0] $end
$var wire 32 + data_out [31:0] $end
$scope module shift_1 $end
$var wire 32 , data_in [31:0] $end
$var wire 1 - shift $end
$var wire 32 . shifted_data [31:0] $end
$var wire 32 / data_out [31:0] $end
$scope module pick_shifted_or_not $end
$var wire 32 0 in0 [31:0] $end
$var wire 32 1 in1 [31:0] $end
$var wire 1 - select $end
$var wire 32 2 out [31:0] $end
$upscope $end
$upscope $end
$scope module shift_16 $end
$var wire 1 3 shift $end
$var wire 32 4 shifted_data [31:0] $end
$var wire 32 5 data_out [31:0] $end
$var wire 32 6 data_in [31:0] $end
$scope module pick_shifted_or_not $end
$var wire 32 7 in1 [31:0] $end
$var wire 1 3 select $end
$var wire 32 8 out [31:0] $end
$var wire 32 9 in0 [31:0] $end
$upscope $end
$upscope $end
$scope module shift_2 $end
$var wire 32 : data_in [31:0] $end
$var wire 1 ; shift $end
$var wire 32 < shifted_data [31:0] $end
$var wire 32 = data_out [31:0] $end
$scope module pick_shifted_or_not $end
$var wire 32 > in0 [31:0] $end
$var wire 32 ? in1 [31:0] $end
$var wire 1 ; select $end
$var wire 32 @ out [31:0] $end
$upscope $end
$upscope $end
$scope module shift_4 $end
$var wire 32 A data_in [31:0] $end
$var wire 1 B shift $end
$var wire 32 C shifted_data [31:0] $end
$var wire 32 D data_out [31:0] $end
$scope module pick_shifted_or_not $end
$var wire 32 E in0 [31:0] $end
$var wire 32 F in1 [31:0] $end
$var wire 1 B select $end
$var wire 32 G out [31:0] $end
$upscope $end
$upscope $end
$scope module shift_8 $end
$var wire 32 H data_in [31:0] $end
$var wire 1 I shift $end
$var wire 32 J shifted_data [31:0] $end
$var wire 32 K data_out [31:0] $end
$scope module pick_shifted_or_not $end
$var wire 32 L in0 [31:0] $end
$var wire 32 M in1 [31:0] $end
$var wire 1 I select $end
$var wire 32 N out [31:0] $end
$upscope $end
$upscope $end
$upscope $end
$upscope $end
$enddefinitions $end
#0
$dumpvars
b11111111111111100111100100111000 N
b11111111111111111111111001111001 M
b11111111111111100111100100111000 L
b11111111111111100111100100111000 K
b11111111111111111111111001111001 J
0I
b11111111111111100111100100111000 H
b11111111111111100111100100111000 G
b11111111111111111110011110010011 F
b11111111111111100111100100111000 E
b11111111111111100111100100111000 D
b11111111111111111110011110010011 C
0B
b11111111111111100111100100111000 A
b11111111111111100111100100111000 @
b11111111111111111001111001001110 ?
b11111111111111100111100100111000 >
b11111111111111100111100100111000 =
b11111111111111111001111001001110 <
0;
b11111111111111100111100100111000 :
b11111111111111100111100100111000 9
b11111111111111100111100100111000 8
b11111111111111111111111111111110 7
b11111111111111100111100100111000 6
b11111111111111100111100100111000 5
b11111111111111111111111111111110 4
03
b11111111111111100111100100111000 2
b11111111111111110011110010011100 1
b11111111111111100111100100111000 0
b11111111111111100111100100111000 /
b11111111111111110011110010011100 .
0-
b11111111111111100111100100111000 ,
b11111111111111100111100100111000 +
b11111111111111100111100100111000 *
b11111111111111100111100100111000 )
b11111111111111100111100100111000 (
b11111111111111100111100100111000 '
b11111111111111100111100100111000 &
b0 %
b0 $
b0 #
b11111111111111100111100100111000 "
b11111111111111100111100100111000 !
$end
#200
b11111111111111110011110010011100 "
b11111111111111110011110010011100 +
b11111111111111110011110010011100 5
b11111111111111110011110010011100 8
b11111111111111111111111111111111 4
b11111111111111111111111111111111 7
b11111111111111111111111100111100 J
b11111111111111111111111100111100 M
b11111111111111110011110010011100 '
b11111111111111110011110010011100 6
b11111111111111110011110010011100 9
b11111111111111110011110010011100 K
b11111111111111110011110010011100 N
b11111111111111111111001111001001 C
b11111111111111111111001111001001 F
b11111111111111110011110010011100 (
b11111111111111110011110010011100 D
b11111111111111110011110010011100 G
b11111111111111110011110010011100 H
b11111111111111110011110010011100 L
b11111111111111111100111100100111 <
b11111111111111111100111100100111 ?
b11111111111111110011110010011100 )
b11111111111111110011110010011100 =
b11111111111111110011110010011100 @
b11111111111111110011110010011100 A
b11111111111111110011110010011100 E
b11111111111111110011110010011100 *
b11111111111111110011110010011100 /
b11111111111111110011110010011100 2
b11111111111111110011110010011100 :
b11111111111111110011110010011100 >
1-
b1 #
b1 %
b1 $
#400
b11111111111111111001111001001110 "
b11111111111111111001111001001110 +
b11111111111111111001111001001110 5
b11111111111111111001111001001110 8
b11111111111111111111111110011110 J
b11111111111111111111111110011110 M
b11111111111111111001111001001110 '
b11111111111111111001111001001110 6
b11111111111111111001111001001110 9
b11111111111111111001111001001110 K
b11111111111111111001111001001110 N
b11111111111111111001111001001110 <
b11111111111111111001111001001110 ?
b11111111111111111111100111100100 C
b11111111111111111111100111100100 F
b11111111111111111001111001001110 (
b11111111111111111001111001001110 D
b11111111111111111001111001001110 G
b11111111111111111001111001001110 H
b11111111111111111001111001001110 L
b11111111111111100111100100111000 *
b11111111111111100111100100111000 /
b11111111111111100111100100111000 2
b11111111111111100111100100111000 :
b11111111111111100111100100111000 >
b11111111111111111001111001001110 )
b11111111111111111001111001001110 =
b11111111111111111001111001001110 @
b11111111111111111001111001001110 A
b11111111111111111001111001001110 E
0-
1;
b10 #
b10 %
b10 $
#600
b11111111111111111100111100100111 "
b11111111111111111100111100100111 +
b11111111111111111100111100100111 5
b11111111111111111100111100100111 8
b11111111111111111111111111001111 J
b11111111111111111111111111001111 M
b11111111111111111100111100100111 '
b11111111111111111100111100100111 6
b11111111111111111100111100100111 9
b11111111111111111100111100100111 K
b11111111111111111100111100100111 N
b11111111111111111111110011110010 C
b11111111111111111111110011110010 F
b11111111111111111100111100100111 (
b11111111111111111100111100100111 D
b11111111111111111100111100100111 G
b11111111111111111100111100100111 H
b11111111111111111100111100100111 L
b11111111111111111100111100100111 )
b11111111111111111100111100100111 =
b11111111111111111100111100100111 @
b11111111111111111100111100100111 A
b11111111111111111100111100100111 E
b11111111111111111100111100100111 <
b11111111111111111100111100100111 ?
b11111111111111110011110010011100 *
b11111111111111110011110010011100 /
b11111111111111110011110010011100 2
b11111111111111110011110010011100 :
b11111111111111110011110010011100 >
1-
b11 #
b11 %
b11 $
#800
b11111111111111111110011110010011 "
b11111111111111111110011110010011 +
b11111111111111111110011110010011 5
b11111111111111111110011110010011 8
b11111111111111111001111001001110 <
b11111111111111111001111001001110 ?
b11111111111111111110011110010011 C
b11111111111111111110011110010011 F
b11111111111111111111111111100111 J
b11111111111111111111111111100111 M
b11111111111111111110011110010011 '
b11111111111111111110011110010011 6
b11111111111111111110011110010011 9
b11111111111111111110011110010011 K
b11111111111111111110011110010011 N
b11111111111111100111100100111000 *
b11111111111111100111100100111000 /
b11111111111111100111100100111000 2
b11111111111111100111100100111000 :
b11111111111111100111100100111000 >
b11111111111111100111100100111000 )
b11111111111111100111100100111000 =
b11111111111111100111100100111000 @
b11111111111111100111100100111000 A
b11111111111111100111100100111000 E
b11111111111111111110011110010011 (
b11111111111111111110011110010011 D
b11111111111111111110011110010011 G
b11111111111111111110011110010011 H
b11111111111111111110011110010011 L
0-
0;
1B
b100 #
b100 %
b100 $
#1000
b11111111111111111111001111001001 "
b11111111111111111111001111001001 +
b11111111111111111111001111001001 5
b11111111111111111111001111001001 8
b11111111111111111111111111110011 J
b11111111111111111111111111110011 M
b11111111111111111111001111001001 '
b11111111111111111111001111001001 6
b11111111111111111111001111001001 9
b11111111111111111111001111001001 K
b11111111111111111111001111001001 N
b11111111111111111111001111001001 (
b11111111111111111111001111001001 D
b11111111111111111111001111001001 G
b11111111111111111111001111001001 H
b11111111111111111111001111001001 L
b11111111111111111111001111001001 C
b11111111111111111111001111001001 F
b11111111111111111100111100100111 <
b11111111111111111100111100100111 ?
b11111111111111110011110010011100 )
b11111111111111110011110010011100 =
b11111111111111110011110010011100 @
b11111111111111110011110010011100 A
b11111111111111110011110010011100 E
b11111111111111110011110010011100 *
b11111111111111110011110010011100 /
b11111111111111110011110010011100 2
b11111111111111110011110010011100 :
b11111111111111110011110010011100 >
1-
b101 #
b101 %
b101 $
#1200
b11111111111111111111100111100100 "
b11111111111111111111100111100100 +
b11111111111111111111100111100100 5
b11111111111111111111100111100100 8
b11111111111111111111111111111001 J
b11111111111111111111111111111001 M
b11111111111111111111100111100100 '
b11111111111111111111100111100100 6
b11111111111111111111100111100100 9
b11111111111111111111100111100100 K
b11111111111111111111100111100100 N
b11111111111111111111100111100100 (
b11111111111111111111100111100100 D
b11111111111111111111100111100100 G
b11111111111111111111100111100100 H
b11111111111111111111100111100100 L
b11111111111111111001111001001110 <
b11111111111111111001111001001110 ?
b11111111111111111111100111100100 C
b11111111111111111111100111100100 F
b11111111111111100111100100111000 *
b11111111111111100111100100111000 /
b11111111111111100111100100111000 2
b11111111111111100111100100111000 :
b11111111111111100111100100111000 >
b11111111111111111001111001001110 )
b11111111111111111001111001001110 =
b11111111111111111001111001001110 @
b11111111111111111001111001001110 A
b11111111111111111001111001001110 E
0-
1;
b110 #
b110 %
b110 $
#1400
b11111111111111111111110011110010 "
b11111111111111111111110011110010 +
b11111111111111111111110011110010 5
b11111111111111111111110011110010 8
b11111111111111111111111111111100 J
b11111111111111111111111111111100 M
b11111111111111111111110011110010 '
b11111111111111111111110011110010 6
b11111111111111111111110011110010 9
b11111111111111111111110011110010 K
b11111111111111111111110011110010 N
b11111111111111111111110011110010 (
b11111111111111111111110011110010 D
b11111111111111111111110011110010 G
b11111111111111111111110011110010 H
b11111111111111111111110011110010 L
b11111111111111111111110011110010 C
b11111111111111111111110011110010 F
b11111111111111111100111100100111 )
b11111111111111111100111100100111 =
b11111111111111111100111100100111 @
b11111111111111111100111100100111 A
b11111111111111111100111100100111 E
b11111111111111111100111100100111 <
b11111111111111111100111100100111 ?
b11111111111111110011110010011100 *
b11111111111111110011110010011100 /
b11111111111111110011110010011100 2
b11111111111111110011110010011100 :
b11111111111111110011110010011100 >
1-
b111 #
b111 %
b111 $
#1600
b11111111111111111001111001001110 <
b11111111111111111001111001001110 ?
b11111111111111111110011110010011 C
b11111111111111111110011110010011 F
b11111111111111111111111001111001 J
b11111111111111111111111001111001 M
b11111111111111111111111001111001 "
b11111111111111111111111001111001 +
b11111111111111111111111001111001 5
b11111111111111111111111001111001 8
b11111111111111100111100100111000 *
b11111111111111100111100100111000 /
b11111111111111100111100100111000 2
b11111111111111100111100100111000 :
b11111111111111100111100100111000 >
b11111111111111100111100100111000 )
b11111111111111100111100100111000 =
b11111111111111100111100100111000 @
b11111111111111100111100100111000 A
b11111111111111100111100100111000 E
b11111111111111100111100100111000 (
b11111111111111100111100100111000 D
b11111111111111100111100100111000 G
b11111111111111100111100100111000 H
b11111111111111100111100100111000 L
b11111111111111111111111001111001 '
b11111111111111111111111001111001 6
b11111111111111111111111001111001 9
b11111111111111111111111001111001 K
b11111111111111111111111001111001 N
0-
0;
0B
1I
b1000 #
b1000 %
b1000 $
#1800
b11111111111111111111111100111100 "
b11111111111111111111111100111100 +
b11111111111111111111111100111100 5
b11111111111111111111111100111100 8
b11111111111111111111111100111100 '
b11111111111111111111111100111100 6
b11111111111111111111111100111100 9
b11111111111111111111111100111100 K
b11111111111111111111111100111100 N
b11111111111111111111111100111100 J
b11111111111111111111111100111100 M
b11111111111111111111001111001001 C
b11111111111111111111001111001001 F
b11111111111111110011110010011100 (
b11111111111111110011110010011100 D
b11111111111111110011110010011100 G
b11111111111111110011110010011100 H
b11111111111111110011110010011100 L
b11111111111111111100111100100111 <
b11111111111111111100111100100111 ?
b11111111111111110011110010011100 )
b11111111111111110011110010011100 =
b11111111111111110011110010011100 @
b11111111111111110011110010011100 A
b11111111111111110011110010011100 E
b11111111111111110011110010011100 *
b11111111111111110011110010011100 /
b11111111111111110011110010011100 2
b11111111111111110011110010011100 :
b11111111111111110011110010011100 >
1-
b1001 #
b1001 %
b1001 $
#2000
b11111111111111111111111110011110 "
b11111111111111111111111110011110 +
b11111111111111111111111110011110 5
b11111111111111111111111110011110 8
b11111111111111111111111110011110 '
b11111111111111111111111110011110 6
b11111111111111111111111110011110 9
b11111111111111111111111110011110 K
b11111111111111111111111110011110 N
b11111111111111111111111110011110 J
b11111111111111111111111110011110 M
b11111111111111111001111001001110 <
b11111111111111111001111001001110 ?
b11111111111111111111100111100100 C
b11111111111111111111100111100100 F
b11111111111111111001111001001110 (
b11111111111111111001111001001110 D
b11111111111111111001111001001110 G
b11111111111111111001111001001110 H
b11111111111111111001111001001110 L
b11111111111111100111100100111000 *
b11111111111111100111100100111000 /
b11111111111111100111100100111000 2
b11111111111111100111100100111000 :
b11111111111111100111100100111000 >
b11111111111111111001111001001110 )
b11111111111111111001111001001110 =
b11111111111111111001111001001110 @
b11111111111111111001111001001110 A
b11111111111111111001111001001110 E
0-
1;
b1010 #
b1010 %
b1010 $
#2200
b11111111111111111111111111001111 "
b11111111111111111111111111001111 +
b11111111111111111111111111001111 5
b11111111111111111111111111001111 8
b11111111111111111111111111001111 '
b11111111111111111111111111001111 6
b11111111111111111111111111001111 9
b11111111111111111111111111001111 K
b11111111111111111111111111001111 N
b11111111111111111111111111001111 J
b11111111111111111111111111001111 M
b11111111111111111111110011110010 C
b11111111111111111111110011110010 F
b11111111111111111100111100100111 (
b11111111111111111100111100100111 D
b11111111111111111100111100100111 G
b11111111111111111100111100100111 H
b11111111111111111100111100100111 L
b11111111111111111100111100100111 )
b11111111111111111100111100100111 =
b11111111111111111100111100100111 @
b11111111111111111100111100100111 A
b11111111111111111100111100100111 E
b11111111111111111100111100100111 <
b11111111111111111100111100100111 ?
b11111111111111110011110010011100 *
b11111111111111110011110010011100 /
b11111111111111110011110010011100 2
b11111111111111110011110010011100 :
b11111111111111110011110010011100 >
1-
b1011 #
b1011 %
b1011 $
#2400
b11111111111111111111111111100111 "
b11111111111111111111111111100111 +
b11111111111111111111111111100111 5
b11111111111111111111111111100111 8
b11111111111111111111111111100111 '
b11111111111111111111111111100111 6
b11111111111111111111111111100111 9
b11111111111111111111111111100111 K
b11111111111111111111111111100111 N
b11111111111111111001111001001110 <
b11111111111111111001111001001110 ?
b11111111111111111110011110010011 C
b11111111111111111110011110010011 F
b11111111111111111111111111100111 J
b11111111111111111111111111100111 M
b11111111111111100111100100111000 *
b11111111111111100111100100111000 /
b11111111111111100111100100111000 2
b11111111111111100111100100111000 :
b11111111111111100111100100111000 >
b11111111111111100111100100111000 )
b11111111111111100111100100111000 =
b11111111111111100111100100111000 @
b11111111111111100111100100111000 A
b11111111111111100111100100111000 E
b11111111111111111110011110010011 (
b11111111111111111110011110010011 D
b11111111111111111110011110010011 G
b11111111111111111110011110010011 H
b11111111111111111110011110010011 L
0-
0;
1B
b1100 #
b1100 %
b1100 $
#2600
b11111111111111111111111111110011 "
b11111111111111111111111111110011 +
b11111111111111111111111111110011 5
b11111111111111111111111111110011 8
b11111111111111111111111111110011 '
b11111111111111111111111111110011 6
b11111111111111111111111111110011 9
b11111111111111111111111111110011 K
b11111111111111111111111111110011 N
b11111111111111111111111111110011 J
b11111111111111111111111111110011 M
b11111111111111111111001111001001 (
b11111111111111111111001111001001 D
b11111111111111111111001111001001 G
b11111111111111111111001111001001 H
b11111111111111111111001111001001 L
b11111111111111111111001111001001 C
b11111111111111111111001111001001 F
b11111111111111111100111100100111 <
b11111111111111111100111100100111 ?
b11111111111111110011110010011100 )
b11111111111111110011110010011100 =
b11111111111111110011110010011100 @
b11111111111111110011110010011100 A
b11111111111111110011110010011100 E
b11111111111111110011110010011100 *
b11111111111111110011110010011100 /
b11111111111111110011110010011100 2
b11111111111111110011110010011100 :
b11111111111111110011110010011100 >
1-
b1101 #
b1101 %
b1101 $
#2800
b11111111111111111111111111111001 "
b11111111111111111111111111111001 +
b11111111111111111111111111111001 5
b11111111111111111111111111111001 8
b11111111111111111111111111111001 '
b11111111111111111111111111111001 6
b11111111111111111111111111111001 9
b11111111111111111111111111111001 K
b11111111111111111111111111111001 N
b11111111111111111111111111111001 J
b11111111111111111111111111111001 M
b11111111111111111111100111100100 (
b11111111111111111111100111100100 D
b11111111111111111111100111100100 G
b11111111111111111111100111100100 H
b11111111111111111111100111100100 L
b11111111111111111001111001001110 <
b11111111111111111001111001001110 ?
b11111111111111111111100111100100 C
b11111111111111111111100111100100 F
b11111111111111100111100100111000 *
b11111111111111100111100100111000 /
b11111111111111100111100100111000 2
b11111111111111100111100100111000 :
b11111111111111100111100100111000 >
b11111111111111111001111001001110 )
b11111111111111111001111001001110 =
b11111111111111111001111001001110 @
b11111111111111111001111001001110 A
b11111111111111111001111001001110 E
0-
1;
b1110 #
b1110 %
b1110 $
#3000
b11111111111111111111111111111100 "
b11111111111111111111111111111100 +
b11111111111111111111111111111100 5
b11111111111111111111111111111100 8
b11111111111111111111111111111100 '
b11111111111111111111111111111100 6
b11111111111111111111111111111100 9
b11111111111111111111111111111100 K
b11111111111111111111111111111100 N
b11111111111111111111111111111100 J
b11111111111111111111111111111100 M
b11111111111111111111110011110010 (
b11111111111111111111110011110010 D
b11111111111111111111110011110010 G
b11111111111111111111110011110010 H
b11111111111111111111110011110010 L
b11111111111111111111110011110010 C
b11111111111111111111110011110010 F
b11111111111111111100111100100111 )
b11111111111111111100111100100111 =
b11111111111111111100111100100111 @
b11111111111111111100111100100111 A
b11111111111111111100111100100111 E
b11111111111111111100111100100111 <
b11111111111111111100111100100111 ?
b11111111111111110011110010011100 *
b11111111111111110011110010011100 /
b11111111111111110011110010011100 2
b11111111111111110011110010011100 :
b11111111111111110011110010011100 >
1-
b1111 #
b1111 %
b1111 $
#3200
b11111111111111111111111111111110 4
b11111111111111111111111111111110 7
b11111111111111111001111001001110 <
b11111111111111111001111001001110 ?
b11111111111111111110011110010011 C
b11111111111111111110011110010011 F
b11111111111111111111111001111001 J
b11111111111111111111111001111001 M
b11111111111111100111100100111000 *
b11111111111111100111100100111000 /
b11111111111111100111100100111000 2
b11111111111111100111100100111000 :
b11111111111111100111100100111000 >
b11111111111111100111100100111000 )
b11111111111111100111100100111000 =
b11111111111111100111100100111000 @
b11111111111111100111100100111000 A
b11111111111111100111100100111000 E
b11111111111111100111100100111000 (
b11111111111111100111100100111000 D
b11111111111111100111100100111000 G
b11111111111111100111100100111000 H
b11111111111111100111100100111000 L
b11111111111111100111100100111000 '
b11111111111111100111100100111000 6
b11111111111111100111100100111000 9
b11111111111111100111100100111000 K
b11111111111111100111100100111000 N
b11111111111111111111111111111110 "
b11111111111111111111111111111110 +
b11111111111111111111111111111110 5
b11111111111111111111111111111110 8
0-
0;
0B
0I
13
b10000 #
b10000 %
b10000 $
#3400
b11111111111111111111111111111111 "
b11111111111111111111111111111111 +
b11111111111111111111111111111111 5
b11111111111111111111111111111111 8
b11111111111111111111111111111111 4
b11111111111111111111111111111111 7
b11111111111111111111111100111100 J
b11111111111111111111111100111100 M
b11111111111111110011110010011100 '
b11111111111111110011110010011100 6
b11111111111111110011110010011100 9
b11111111111111110011110010011100 K
b11111111111111110011110010011100 N
b11111111111111111111001111001001 C
b11111111111111111111001111001001 F
b11111111111111110011110010011100 (
b11111111111111110011110010011100 D
b11111111111111110011110010011100 G
b11111111111111110011110010011100 H
b11111111111111110011110010011100 L
b11111111111111111100111100100111 <
b11111111111111111100111100100111 ?
b11111111111111110011110010011100 )
b11111111111111110011110010011100 =
b11111111111111110011110010011100 @
b11111111111111110011110010011100 A
b11111111111111110011110010011100 E
b11111111111111110011110010011100 *
b11111111111111110011110010011100 /
b11111111111111110011110010011100 2
b11111111111111110011110010011100 :
b11111111111111110011110010011100 >
1-
b10001 #
b10001 %
b10001 $
#3600
b11111111111111111111111110011110 J
b11111111111111111111111110011110 M
b11111111111111111001111001001110 '
b11111111111111111001111001001110 6
b11111111111111111001111001001110 9
b11111111111111111001111001001110 K
b11111111111111111001111001001110 N
b11111111111111111001111001001110 <
b11111111111111111001111001001110 ?
b11111111111111111111100111100100 C
b11111111111111111111100111100100 F
b11111111111111111001111001001110 (
b11111111111111111001111001001110 D
b11111111111111111001111001001110 G
b11111111111111111001111001001110 H
b11111111111111111001111001001110 L
b11111111111111100111100100111000 *
b11111111111111100111100100111000 /
b11111111111111100111100100111000 2
b11111111111111100111100100111000 :
b11111111111111100111100100111000 >
b11111111111111111001111001001110 )
b11111111111111111001111001001110 =
b11111111111111111001111001001110 @
b11111111111111111001111001001110 A
b11111111111111111001111001001110 E
0-
1;
b10010 #
b10010 %
b10010 $
#3800
b11111111111111111111111111001111 J
b11111111111111111111111111001111 M
b11111111111111111100111100100111 '
b11111111111111111100111100100111 6
b11111111111111111100111100100111 9
b11111111111111111100111100100111 K
b11111111111111111100111100100111 N
b11111111111111111111110011110010 C
b11111111111111111111110011110010 F
b11111111111111111100111100100111 (
b11111111111111111100111100100111 D
b11111111111111111100111100100111 G
b11111111111111111100111100100111 H
b11111111111111111100111100100111 L
b11111111111111111100111100100111 )
b11111111111111111100111100100111 =
b11111111111111111100111100100111 @
b11111111111111111100111100100111 A
b11111111111111111100111100100111 E
b11111111111111111100111100100111 <
b11111111111111111100111100100111 ?
b11111111111111110011110010011100 *
b11111111111111110011110010011100 /
b11111111111111110011110010011100 2
b11111111111111110011110010011100 :
b11111111111111110011110010011100 >
1-
b10011 #
b10011 %
b10011 $
#4000
b11111111111111111001111001001110 <
b11111111111111111001111001001110 ?
b11111111111111111110011110010011 C
b11111111111111111110011110010011 F
b11111111111111111111111111100111 J
b11111111111111111111111111100111 M
b11111111111111111110011110010011 '
b11111111111111111110011110010011 6
b11111111111111111110011110010011 9
b11111111111111111110011110010011 K
b11111111111111111110011110010011 N
b11111111111111100111100100111000 *
b11111111111111100111100100111000 /
b11111111111111100111100100111000 2
b11111111111111100111100100111000 :
b11111111111111100111100100111000 >
b11111111111111100111100100111000 )
b11111111111111100111100100111000 =
b11111111111111100111100100111000 @
b11111111111111100111100100111000 A
b11111111111111100111100100111000 E
b11111111111111111110011110010011 (
b11111111111111111110011110010011 D
b11111111111111111110011110010011 G
b11111111111111111110011110010011 H
b11111111111111111110011110010011 L
0-
0;
1B
b10100 #
b10100 %
b10100 $
#4200
b11111111111111111111111111110011 J
b11111111111111111111111111110011 M
b11111111111111111111001111001001 '
b11111111111111111111001111001001 6
b11111111111111111111001111001001 9
b11111111111111111111001111001001 K
b11111111111111111111001111001001 N
b11111111111111111111001111001001 (
b11111111111111111111001111001001 D
b11111111111111111111001111001001 G
b11111111111111111111001111001001 H
b11111111111111111111001111001001 L
b11111111111111111111001111001001 C
b11111111111111111111001111001001 F
b11111111111111111100111100100111 <
b11111111111111111100111100100111 ?
b11111111111111110011110010011100 )
b11111111111111110011110010011100 =
b11111111111111110011110010011100 @
b11111111111111110011110010011100 A
b11111111111111110011110010011100 E
b11111111111111110011110010011100 *
b11111111111111110011110010011100 /
b11111111111111110011110010011100 2
b11111111111111110011110010011100 :
b11111111111111110011110010011100 >
1-
b10101 #
b10101 %
b10101 $
#4400
b11111111111111111111111111111001 J
b11111111111111111111111111111001 M
b11111111111111111111100111100100 '
b11111111111111111111100111100100 6
b11111111111111111111100111100100 9
b11111111111111111111100111100100 K
b11111111111111111111100111100100 N
b11111111111111111111100111100100 (
b11111111111111111111100111100100 D
b11111111111111111111100111100100 G
b11111111111111111111100111100100 H
b11111111111111111111100111100100 L
b11111111111111111001111001001110 <
b11111111111111111001111001001110 ?
b11111111111111111111100111100100 C
b11111111111111111111100111100100 F
b11111111111111100111100100111000 *
b11111111111111100111100100111000 /
b11111111111111100111100100111000 2
b11111111111111100111100100111000 :
b11111111111111100111100100111000 >
b11111111111111111001111001001110 )
b11111111111111111001111001001110 =
b11111111111111111001111001001110 @
b11111111111111111001111001001110 A
b11111111111111111001111001001110 E
0-
1;
b10110 #
b10110 %
b10110 $
#4600
b11111111111111111111111111111100 J
b11111111111111111111111111111100 M
b11111111111111111111110011110010 '
b11111111111111111111110011110010 6
b11111111111111111111110011110010 9
b11111111111111111111110011110010 K
b11111111111111111111110011110010 N
b11111111111111111111110011110010 (
b11111111111111111111110011110010 D
b11111111111111111111110011110010 G
b11111111111111111111110011110010 H
b11111111111111111111110011110010 L
b11111111111111111111110011110010 C
b11111111111111111111110011110010 F
b11111111111111111100111100100111 )
b11111111111111111100111100100111 =
b11111111111111111100111100100111 @
b11111111111111111100111100100111 A
b11111111111111111100111100100111 E
b11111111111111111100111100100111 <
b11111111111111111100111100100111 ?
b11111111111111110011110010011100 *
b11111111111111110011110010011100 /
b11111111111111110011110010011100 2
b11111111111111110011110010011100 :
b11111111111111110011110010011100 >
1-
b10111 #
b10111 %
b10111 $
#4800
b11111111111111111001111001001110 <
b11111111111111111001111001001110 ?
b11111111111111111110011110010011 C
b11111111111111111110011110010011 F
b11111111111111111111111001111001 J
b11111111111111111111111001111001 M
b11111111111111100111100100111000 *
b11111111111111100111100100111000 /
b11111111111111100111100100111000 2
b11111111111111100111100100111000 :
b11111111111111100111100100111000 >
b11111111111111100111100100111000 )
b11111111111111100111100100111000 =
b11111111111111100111100100111000 @
b11111111111111100111100100111000 A
b11111111111111100111100100111000 E
b11111111111111100111100100111000 (
b11111111111111100111100100111000 D
b11111111111111100111100100111000 G
b11111111111111100111100100111000 H
b11111111111111100111100100111000 L
b11111111111111111111111001111001 '
b11111111111111111111111001111001 6
b11111111111111111111111001111001 9
b11111111111111111111111001111001 K
b11111111111111111111111001111001 N
0-
0;
0B
1I
b11000 #
b11000 %
b11000 $
#5000
b11111111111111111111111100111100 '
b11111111111111111111111100111100 6
b11111111111111111111111100111100 9
b11111111111111111111111100111100 K
b11111111111111111111111100111100 N
b11111111111111111111111100111100 J
b11111111111111111111111100111100 M
b11111111111111111111001111001001 C
b11111111111111111111001111001001 F
b11111111111111110011110010011100 (
b11111111111111110011110010011100 D
b11111111111111110011110010011100 G
b11111111111111110011110010011100 H
b11111111111111110011110010011100 L
b11111111111111111100111100100111 <
b11111111111111111100111100100111 ?
b11111111111111110011110010011100 )
b11111111111111110011110010011100 =
b11111111111111110011110010011100 @
b11111111111111110011110010011100 A
b11111111111111110011110010011100 E
b11111111111111110011110010011100 *
b11111111111111110011110010011100 /
b11111111111111110011110010011100 2
b11111111111111110011110010011100 :
b11111111111111110011110010011100 >
1-
b11001 #
b11001 %
b11001 $
#5200
b11111111111111111111111110011110 '
b11111111111111111111111110011110 6
b11111111111111111111111110011110 9
b11111111111111111111111110011110 K
b11111111111111111111111110011110 N
b11111111111111111111111110011110 J
b11111111111111111111111110011110 M
b11111111111111111001111001001110 <
b11111111111111111001111001001110 ?
b11111111111111111111100111100100 C
b11111111111111111111100111100100 F
b11111111111111111001111001001110 (
b11111111111111111001111001001110 D
b11111111111111111001111001001110 G
b11111111111111111001111001001110 H
b11111111111111111001111001001110 L
b11111111111111100111100100111000 *
b11111111111111100111100100111000 /
b11111111111111100111100100111000 2
b11111111111111100111100100111000 :
b11111111111111100111100100111000 >
b11111111111111111001111001001110 )
b11111111111111111001111001001110 =
b11111111111111111001111001001110 @
b11111111111111111001111001001110 A
b11111111111111111001111001001110 E
0-
1;
b11010 #
b11010 %
b11010 $
#5400
b11111111111111111111111111001111 '
b11111111111111111111111111001111 6
b11111111111111111111111111001111 9
b11111111111111111111111111001111 K
b11111111111111111111111111001111 N
b11111111111111111111111111001111 J
b11111111111111111111111111001111 M
b11111111111111111111110011110010 C
b11111111111111111111110011110010 F
b11111111111111111100111100100111 (
b11111111111111111100111100100111 D
b11111111111111111100111100100111 G
b11111111111111111100111100100111 H
b11111111111111111100111100100111 L
b11111111111111111100111100100111 )
b11111111111111111100111100100111 =
b11111111111111111100111100100111 @
b11111111111111111100111100100111 A
b11111111111111111100111100100111 E
b11111111111111111100111100100111 <
b11111111111111111100111100100111 ?
b11111111111111110011110010011100 *
b11111111111111110011110010011100 /
b11111111111111110011110010011100 2
b11111111111111110011110010011100 :
b11111111111111110011110010011100 >
1-
b11011 #
b11011 %
b11011 $
#5600
b11111111111111111111111111100111 '
b11111111111111111111111111100111 6
b11111111111111111111111111100111 9
b11111111111111111111111111100111 K
b11111111111111111111111111100111 N
b11111111111111111001111001001110 <
b11111111111111111001111001001110 ?
b11111111111111111110011110010011 C
b11111111111111111110011110010011 F
b11111111111111111111111111100111 J
b11111111111111111111111111100111 M
b11111111111111100111100100111000 *
b11111111111111100111100100111000 /
b11111111111111100111100100111000 2
b11111111111111100111100100111000 :
b11111111111111100111100100111000 >
b11111111111111100111100100111000 )
b11111111111111100111100100111000 =
b11111111111111100111100100111000 @
b11111111111111100111100100111000 A
b11111111111111100111100100111000 E
b11111111111111111110011110010011 (
b11111111111111111110011110010011 D
b11111111111111111110011110010011 G
b11111111111111111110011110010011 H
b11111111111111111110011110010011 L
0-
0;
1B
b11100 #
b11100 %
b11100 $
