processor/alu/sll/sll_barrel_shifter_wave.vcd
$date
	Tue Jan 18 16:38:48 2022
$end
$version
	Icarus Verilog
$end
$timescale
	100ps
$end
$scope module sll_barrel_shifter_tb $end
$var wire 32 ! data_in [31:0] $end
$var wire 32 " data_out [31:0] $end
$var wire 5 # ctrl_shiftamt [4:0] $end
$var integer 32 $ i [31:0] $end
$scope module shifter $end
$var wire 5 % ctrl_shiftamt [4:0] $end
$var wire 32 & data_in [31:0] $end
$var wire 32 ' shift_8_out [31:0] $end
$var wire 32 ( shift_4_out [31:0] $end
$var wire 32 ) shift_2_out [31:0] $end
$var wire 32 * shift_1_out [31:0] $end
$var wire 32 + data_out [31:0] $end
$scope module shift_1 $end
$var wire 32 , data_in [31:0] $end
$var wire 1 - shift $end
$var wire 32 . shifted_data [31:0] $end
$var wire 32 / data_out [31:0] $end
$scope module pick_shifted_or_not $end
$var wire 32 0 in0 [31:0] $end
$var wire 32 1 in1 [31:0] $end
$var wire 1 - select $end
$var wire 32 2 out [31:0] $end
$upscope $end
$upscope $end
$scope module shift_16 $end
$var wire 1 3 shift $end
$var wire 32 4 shifted_data [31:0] $end
$var wire 32 5 data_out [31:0] $end
$var wire 32 6 data_in [31:0] $end
$scope module pick_shifted_or_not $end
$var wire 32 7 in1 [31:0] $end
$var wire 1 3 select $end
$var wire 32 8 out [31:0] $end
$var wire 32 9 in0 [31:0] $end
$upscope $end
$upscope $end
$scope module shift_2 $end
$var wire 32 : data_in [31:0] $end
$var wire 1 ; shift $end
$var wire 32 < shifted_data [31:0] $end
$var wire 32 = data_out [31:0] $end
$scope module pick_shifted_or_not $end
$var wire 32 > in0 [31:0] $end
$var wire 32 ? in1 [31:0] $end
$var wire 1 ; select $end
$var wire 32 @ out [31:0] $end
$upscope $end
$upscope $end
$scope module shift_4 $end
$var wire 32 A data_in [31:0] $end
$var wire 1 B shift $end
$var wire 32 C shifted_data [31:0] $end
$var wire 32 D data_out [31:0] $end
$scope module pick_shifted_or_not $end
$var wire 32 E in0 [31:0] $end
$var wire 32 F in1 [31:0] $end
$var wire 1 B select $end
$var wire 32 G out [31:0] $end
$upscope $end
$upscope $end
$scope module shift_8 $end
$var wire 32 H data_in [31:0] $end
$var wire 1 I shift $end
$var wire 32 J shifted_data [31:0] $end
$var wire 32 K data_out [31:0] $end
$scope module pick_shifted_or_not $end
$var wire 32 L in0 [31:0] $end
$var wire 32 M in1 [31:0] $end
$var wire 1 I select $end
$var wire 32 N out [31:0] $end
$upscope $end
$upscope $end
$upscope $end
$upscope $end
$enddefinitions $end
#0
$dumpvars
b11111111111111111111111111111111 N
b11111111111111111111111100000000 M
b11111111111111111111111111111111 L
b11111111111111111111111111111111 K
b11111111111111111111111100000000 J
0I
b11111111111111111111111111111111 H
b11111111111111111111111111111111 G
b11111111111111111111111111110000 F
b11111111111111111111111111111111 E
b11111111111111111111111111111111 D
b11111111111111111111111111110000 C
0B
b11111111111111111111111111111111 A
b11111111111111111111111111111111 @
b11111111111111111111111111111100 ?
b11111111111111111111111111111111 >
b11111111111111111111111111111111 =
b11111111111111111111111111111100 <
0;
b11111111111111111111111111111111 :
b11111111111111111111111111111111 9
b11111111111111111111111111111111 8
b11111111111111110000000000000000 7
b11111111111111111111111111111111 6
b11111111111111111111111111111111 5
b11111111111111110000000000000000 4
03
b11111111111111111111111111111111 2
b11111111111111111111111111111110 1
b11111111111111111111111111111111 0
b11111111111111111111111111111111 /
b11111111111111111111111111111110 .
0-
b11111111111111111111111111111111 ,
b11111111111111111111111111111111 +
b11111111111111111111111111111111 *
b11111111111111111111111111111111 )
b11111111111111111111111111111111 (
b11111111111111111111111111111111 '
b11111111111111111111111111111111 &
b0 %
b0 $
b0 #
b11111111111111111111111111111111 "
b11111111111111111111111111111111 !
$end
#200
b11111111111111111111111111111110 "
b11111111111111111111111111111110 +
b11111111111111111111111111111110 5
b11111111111111111111111111111110 8
b11111111111111100000000000000000 4
b11111111111111100000000000000000 7
b11111111111111111111111000000000 J
b11111111111111111111111000000000 M
b11111111111111111111111111111110 '
b11111111111111111111111111111110 6
b11111111111111111111111111111110 9
b11111111111111111111111111111110 K
b11111111111111111111111111111110 N
b11111111111111111111111111100000 C
b11111111111111111111111111100000 F
b11111111111111111111111111111110 (
b11111111111111111111111111111110 D
b11111111111111111111111111111110 G
b11111111111111111111111111111110 H
b11111111111111111111111111111110 L
b11111111111111111111111111111000 <
b11111111111111111111111111111000 ?
b11111111111111111111111111111110 )
b11111111111111111111111111111110 =
b11111111111111111111111111111110 @
b11111111111111111111111111111110 A
b11111111111111111111111111111110 E
b11111111111111111111111111111110 *
b11111111111111111111111111111110 /
b11111111111111111111111111111110 2
b11111111111111111111111111111110 :
b11111111111111111111111111111110 >
1-
b1 #
b1 %
b1 $
#400
b11111111111111111111111111111100 "
b11111111111111111111111111111100 +
b11111111111111111111111111111100 5
b11111111111111111111111111111100 8
b11111111111111000000000000000000 4
b11111111111111000000000000000000 7
b11111111111111111111110000000000 J
b11111111111111111111110000000000 M
b11111111111111111111111111111100 '
b11111111111111111111111111111100 6
b11111111111111111111111111111100 9
b11111111111111111111111111111100 K
b11111111111111111111111111111100 N
b11111111111111111111111111111100 <
b11111111111111111111111111111100 ?
b11111111111111111111111111000000 C
b11111111111111111111111111000000 F
b11111111111111111111111111111100 (
b11111111111111111111111111111100 D
b11111111111111111111111111111100 G
b11111111111111111111111111111100 H
b11111111111111111111111111111100 L
b11111111111111111111111111111111 *
b11111111111111111111111111111111 /
b11111111111111111111111111111111 2
b11111111111111111111111111111111 :
b11111111111111111111111111111111 >
b11111111111111111111111111111100 )
b11111111111111111111111111111100 =
b11111111111111111111111111111100 @
b11111111111111111111111111111100 A
b11111111111111111111111111111100 E
0-
1;
b10 #
b10 %
b10 $
#600
b11111111111111111111111111111000 "
b11111111111111111111111111111000 +
b11111111111111111111111111111000 5
b11111111111111111111111111111000 8
b11111111111110000000000000000000 4
b11111111111110000000000000000000 7
b11111111111111111111100000000000 J
b11111111111111111111100000000000 M
b11111111111111111111111111111000 '
b11111111111111111111111111111000 6
b11111111111111111111111111111000 9
b11111111111111111111111111111000 K
b11111111111111111111111111111000 N
b11111111111111111111111110000000 C
b11111111111111111111111110000000 F
b11111111111111111111111111111000 (
b11111111111111111111111111111000 D
b11111111111111111111111111111000 G
b11111111111111111111111111111000 H
b11111111111111111111111111111000 L
b11111111111111111111111111111000 )
b11111111111111111111111111111000 =
b11111111111111111111111111111000 @
b11111111111111111111111111111000 A
b11111111111111111111111111111000 E
b11111111111111111111111111111000 <
b11111111111111111111111111111000 ?
b11111111111111111111111111111110 *
b11111111111111111111111111111110 /
b11111111111111111111111111111110 2
b11111111111111111111111111111110 :
b11111111111111111111111111111110 >
1-
b11 #
b11 %
b11 $
#800
b11111111111111111111111111110000 "
b11111111111111111111111111110000 +
b11111111111111111111111111110000 5
b11111111111111111111111111110000 8
b11111111111100000000000000000000 4
b11111111111100000000000000000000 7
b11111111111111111111111111111100 <
b11111111111111111111111111111100 ?
b11111111111111111111111111110000 C
b11111111111111111111111111110000 F
b11111111111111111111000000000000 J
b11111111111111111111000000000000 M
b11111111111111111111111111110000 '
b11111111111111111111111111110000 6
b11111111111111111111111111110000 9
b11111111111111111111111111110000 K
b11111111111111111111111111110000 N
b11111111111111111111111111111111 *
b11111111111111111111111111111111 /
b11111111111111111111111111111111 2
b11111111111111111111111111111111 :
b11111111111111111111111111111111 >
b11111111111111111111111111111111 )
b11111111111111111111111111111111 =
b11111111111111111111111111111111 @
b11111111111111111111111111111111 A
b11111111111111111111111111111111 E
b11111111111111111111111111110000 (
b11111111111111111111111111110000 D
b11111111111111111111111111110000 G
b11111111111111111111111111110000 H
b11111111111111111111111111110000 L
0-
0;
1B
b100 #
b100 %
b100 $
#1000
b11111111111111111111111111100000 "
b11111111111111111111111111100000 +
b11111111111111111111111111100000 5
b11111111111111111111111111100000 8
b11111111111000000000000000000000 4
b11111111111000000000000000000000 7
b11111111111111111110000000000000 J
b11111111111111111110000000000000 M
b11111111111111111111111111100000 '
b11111111111111111111111111100000 6
b11111111111111111111111111100000 9
b11111111111111111111111111100000 K
b11111111111111111111111111100000 N
b11111111111111111111111111100000 (
b11111111111111111111111111100000 D
b11111111111111111111111111100000 G
b11111111111111111111111111100000 H
b11111111111111111111111111100000 L
b11111111111111111111111111100000 C
b11111111111111111111111111100000 F
b11111111111111111111111111111000 <
b11111111111111111111111111111000 ?
b11111111111111111111111111111110 )
b11111111111111111111111111111110 =
b11111111111111111111111111111110 @
b11111111111111111111111111111110 A
b11111111111111111111111111111110 E
b11111111111111111111111111111110 *
b11111111111111111111111111111110 /
b11111111111111111111111111111110 2
b11111111111111111111111111111110 :
b11111111111111111111111111111110 >
1-
b101 #
b101 %
b101 $
#1200
b11111111111111111111111111000000 "
b11111111111111111111111111000000 +
b11111111111111111111111111000000 5
b11111111111111111111111111000000 8
b11111111110000000000000000000000 4
b11111111110000000000000000000000 7
b11111111111111111100000000000000 J
b11111111111111111100000000000000 M
b11111111111111111111111111000000 '
b11111111111111111111111111000000 6
b11111111111111111111111111000000 9
b11111111111111111111111111000000 K
b11111111111111111111111111000000 N
b11111111111111111111111111000000 (
b11111111111111111111111111000000 D
b11111111111111111111111111000000 G
b11111111111111111111111111000000 H
b11111111111111111111111111000000 L
b11111111111111111111111111111100 <
b11111111111111111111111111111100 ?
b11111111111111111111111111000000 C
b11111111111111111111111111000000 F
b11111111111111111111111111111111 *
b11111111111111111111111111111111 /
b11111111111111111111111111111111 2
b11111111111111111111111111111111 :
b11111111111111111111111111111111 >
b11111111111111111111111111111100 )
b11111111111111111111111111111100 =
b11111111111111111111111111111100 @
b11111111111111111111111111111100 A
b11111111111111111111111111111100 E
0-
1;
b110 #
b110 %
b110 $
#1400
b11111111111111111111111110000000 "
b11111111111111111111111110000000 +
b11111111111111111111111110000000 5
b11111111111111111111111110000000 8
b11111111100000000000000000000000 4
b11111111100000000000000000000000 7
b11111111111111111000000000000000 J
b11111111111111111000000000000000 M
b11111111111111111111111110000000 '
b11111111111111111111111110000000 6
b11111111111111111111111110000000 9
b11111111111111111111111110000000 K
b11111111111111111111111110000000 N
b11111111111111111111111110000000 (
b11111111111111111111111110000000 D
b11111111111111111111111110000000 G
b11111111111111111111111110000000 H
b11111111111111111111111110000000 L
b11111111111111111111111110000000 C
b11111111111111111111111110000000 F
b11111111111111111111111111111000 )
b11111111111111111111111111111000 =
b11111111111111111111111111111000 @
b11111111111111111111111111111000 A
b11111111111111111111111111111000 E
b11111111111111111111111111111000 <
b11111111111111111111111111111000 ?
b11111111111111111111111111111110 *
b11111111111111111111111111111110 /
b11111111111111111111111111111110 2
b11111111111111111111111111111110 :
b11111111111111111111111111111110 >
1-
b111 #
b111 %
b111 $
#1600
b11111111111111111111111111111100 <
b11111111111111111111111111111100 ?
b11111111111111111111111111110000 C
b11111111111111111111111111110000 F
b11111111111111111111111100000000 J
b11111111111111111111111100000000 M
b11111111111111111111111100000000 "
b11111111111111111111111100000000 +
b11111111111111111111111100000000 5
b11111111111111111111111100000000 8
b11111111000000000000000000000000 4
b11111111000000000000000000000000 7
b11111111111111111111111111111111 *
b11111111111111111111111111111111 /
b11111111111111111111111111111111 2
b11111111111111111111111111111111 :
b11111111111111111111111111111111 >
b11111111111111111111111111111111 )
b11111111111111111111111111111111 =
b11111111111111111111111111111111 @
b11111111111111111111111111111111 A
b11111111111111111111111111111111 E
b11111111111111111111111111111111 (
b11111111111111111111111111111111 D
b11111111111111111111111111111111 G
b11111111111111111111111111111111 H
b11111111111111111111111111111111 L
b11111111111111111111111100000000 '
b11111111111111111111111100000000 6
b11111111111111111111111100000000 9
b11111111111111111111111100000000 K
b11111111111111111111111100000000 N
0-
0;
0B
1I
b1000 #
b1000 %
b1000 $
#1800
b11111111111111111111111000000000 "
b11111111111111111111111000000000 +
b11111111111111111111111000000000 5
b11111111111111111111111000000000 8
b11111110000000000000000000000000 4
b11111110000000000000000000000000 7
b11111111111111111111111000000000 '
b11111111111111111111111000000000 6
b11111111111111111111111000000000 9
b11111111111111111111111000000000 K
b11111111111111111111111000000000 N
b11111111111111111111111000000000 J
b11111111111111111111111000000000 M
b11111111111111111111111111100000 C
b11111111111111111111111111100000 F
b11111111111111111111111111111110 (
b11111111111111111111111111111110 D
b11111111111111111111111111111110 G
b11111111111111111111111111111110 H
b11111111111111111111111111111110 L
b11111111111111111111111111111000 <
b11111111111111111111111111111000 ?
b11111111111111111111111111111110 )
b11111111111111111111111111111110 =
b11111111111111111111111111111110 @
b11111111111111111111111111111110 A
b11111111111111111111111111111110 E
b11111111111111111111111111111110 *
b11111111111111111111111111111110 /
b11111111111111111111111111111110 2
b11111111111111111111111111111110 :
b11111111111111111111111111111110 >
1-
b1001 #
b1001 %
b1001 $
#2000
b11111111111111111111110000000000 "
b11111111111111111111110000000000 +
b11111111111111111111110000000000 5
b11111111111111111111110000000000 8
b11111100000000000000000000000000 4
b11111100000000000000000000000000 7
b11111111111111111111110000000000 '
b11111111111111111111110000000000 6
b11111111111111111111110000000000 9
b11111111111111111111110000000000 K
b11111111111111111111110000000000 N
b11111111111111111111110000000000 J
b11111111111111111111110000000000 M
b11111111111111111111111111111100 <
b11111111111111111111111111111100 ?
b11111111111111111111111111000000 C
b11111111111111111111111111000000 F
b11111111111111111111111111111100 (
b11111111111111111111111111111100 D
b11111111111111111111111111111100 G
b11111111111111111111111111111100 H
b11111111111111111111111111111100 L
b11111111111111111111111111111111 *
b11111111111111111111111111111111 /
b11111111111111111111111111111111 2
b11111111111111111111111111111111 :
b11111111111111111111111111111111 >
b11111111111111111111111111111100 )
b11111111111111111111111111111100 =
b11111111111111111111111111111100 @
b11111111111111111111111111111100 A
b11111111111111111111111111111100 E
0-
1;
b1010 #
b1010 %
b1010 $
#2200
b11111111111111111111100000000000 "
b11111111111111111111100000000000 +
b11111111111111111111100000000000 5
b11111111111111111111100000000000 8
b11111000000000000000000000000000 4
b11111000000000000000000000000000 7
b11111111111111111111100000000000 '
b11111111111111111111100000000000 6
b11111111111111111111100000000000 9
b11111111111111111111100000000000 K
b11111111111111111111100000000000 N
b11111111111111111111100000000000 J
b11111111111111111111100000000000 M
b11111111111111111111111110000000 C
b11111111111111111111111110000000 F
b11111111111111111111111111111000 (
b11111111111111111111111111111000 D
b11111111111111111111111111111000 G
b11111111111111111111111111111000 H
b11111111111111111111111111111000 L
b11111111111111111111111111111000 )
b11111111111111111111111111111000 =
b11111111111111111111111111111000 @
b11111111111111111111111111111000 A
b11111111111111111111111111111000 E
b11111111111111111111111111111000 <
b11111111111111111111111111111000 ?
b11111111111111111111111111111110 *
b11111111111111111111111111111110 /
b11111111111111111111111111111110 2
b11111111111111111111111111111110 :
b11111111111111111111111111111110 >
1-
b1011 #
b1011 %
b1011 $
#2400
b11111111111111111111000000000000 "
b11111111111111111111000000000000 +
b11111111111111111111000000000000 5
b11111111111111111111000000000000 8
b11110000000000000000000000000000 4
b11110000000000000000000000000000 7
b11111111111111111111000000000000 '
b11111111111111111111000000000000 6
b11111111111111111111000000000000 9
b11111111111111111111000000000000 K
b11111111111111111111000000000000 N
b11111111111111111111111111111100 <
b11111111111111111111111111111100 ?
b11111111111111111111111111110000 C
b11111111111111111111111111110000 F
b11111111111111111111000000000000 J
b11111111111111111111000000000000 M
b11111111111111111111111111111111 *
b11111111111111111111111111111111 /
b11111111111111111111111111111111 2
b11111111111111111111111111111111 :
b11111111111111111111111111111111 >
b11111111111111111111111111111111 )
b11111111111111111111111111111111 =
b11111111111111111111111111111111 @
b11111111111111111111111111111111 A
b11111111111111111111111111111111 E
b11111111111111111111111111110000 (
b11111111111111111111111111110000 D
b11111111111111111111111111110000 G
b11111111111111111111111111110000 H
b11111111111111111111111111110000 L
0-
0;
1B
b1100 #
b1100 %
b1100 $
#2600
b11111111111111111110000000000000 "
b11111111111111111110000000000000 +
b11111111111111111110000000000000 5
b11111111111111111110000000000000 8
b11100000000000000000000000000000 4
b11100000000000000000000000000000 7
b11111111111111111110000000000000 '
b11111111111111111110000000000000 6
b11111111111111111110000000000000 9
b11111111111111111110000000000000 K
b11111111111111111110000000000000 N
b11111111111111111110000000000000 J
b11111111111111111110000000000000 M
b11111111111111111111111111100000 (
b11111111111111111111111111100000 D
b11111111111111111111111111100000 G
b11111111111111111111111111100000 H
b11111111111111111111111111100000 L
b11111111111111111111111111100000 C
b11111111111111111111111111100000 F
b11111111111111111111111111111000 <
b11111111111111111111111111111000 ?
b11111111111111111111111111111110 )
b11111111111111111111111111111110 =
b11111111111111111111111111111110 @
b11111111111111111111111111111110 A
b11111111111111111111111111111110 E
b11111111111111111111111111111110 *
b11111111111111111111111111111110 /
b11111111111111111111111111111110 2
b11111111111111111111111111111110 :
b11111111111111111111111111111110 >
1-
b1101 #
b1101 %
b1101 $
#2800
b11111111111111111100000000000000 "
b11111111111111111100000000000000 +
b11111111111111111100000000000000 5
b11111111111111111100000000000000 8
b11000000000000000000000000000000 4
b11000000000000000000000000000000 7
b11111111111111111100000000000000 '
b11111111111111111100000000000000 6
b11111111111111111100000000000000 9
b11111111111111111100000000000000 K
b11111111111111111100000000000000 N
b11111111111111111100000000000000 J
b11111111111111111100000000000000 M
b11111111111111111111111111000000 (
b11111111111111111111111111000000 D
b11111111111111111111111111000000 G
b11111111111111111111111111000000 H
b11111111111111111111111111000000 L
b11111111111111111111111111111100 <
b11111111111111111111111111111100 ?
b11111111111111111111111111000000 C
b11111111111111111111111111000000 F
b11111111111111111111111111111111 *
b11111111111111111111111111111111 /
b11111111111111111111111111111111 2
b11111111111111111111111111111111 :
b11111111111111111111111111111111 >
b11111111111111111111111111111100 )
b11111111111111111111111111111100 =
b11111111111111111111111111111100 @
b11111111111111111111111111111100 A
b11111111111111111111111111111100 E
0-
1;
b1110 #
b1110 %
b1110 $
#3000
b11111111111111111000000000000000 "
b11111111111111111000000000000000 +
b11111111111111111000000000000000 5
b11111111111111111000000000000000 8
b10000000000000000000000000000000 4
b10000000000000000000000000000000 7
b11111111111111111000000000000000 '
b11111111111111111000000000000000 6
b11111111111111111000000000000000 9
b11111111111111111000000000000000 K
b11111111111111111000000000000000 N
b11111111111111111000000000000000 J
b11111111111111111000000000000000 M
b11111111111111111111111110000000 (
b11111111111111111111111110000000 D
b11111111111111111111111110000000 G
b11111111111111111111111110000000 H
b11111111111111111111111110000000 L
b11111111111111111111111110000000 C
b11111111111111111111111110000000 F
b11111111111111111111111111111000 )
b11111111111111111111111111111000 =
b11111111111111111111111111111000 @
b11111111111111111111111111111000 A
b11111111111111111111111111111000 E
b11111111111111111111111111111000 <
b11111111111111111111111111111000 ?
b11111111111111111111111111111110 *
b11111111111111111111111111111110 /
b11111111111111111111111111111110 2
b11111111111111111111111111111110 :
b11111111111111111111111111111110 >
1-
b1111 #
b1111 %
b1111 $
#3200
b11111111111111111111111111111100 <
b11111111111111111111111111111100 ?
b11111111111111111111111111110000 C
b11111111111111111111111111110000 F
b11111111111111111111111100000000 J
b11111111111111111111111100000000 M
b11111111111111110000000000000000 4
b11111111111111110000000000000000 7
b11111111111111111111111111111111 *
b11111111111111111111111111111111 /
b11111111111111111111111111111111 2
b11111111111111111111111111111111 :
b11111111111111111111111111111111 >
b11111111111111111111111111111111 )
b11111111111111111111111111111111 =
b11111111111111111111111111111111 @
b11111111111111111111111111111111 A
b11111111111111111111111111111111 E
b11111111111111111111111111111111 (
b11111111111111111111111111111111 D
b11111111111111111111111111111111 G
b11111111111111111111111111111111 H
b11111111111111111111111111111111 L
b11111111111111111111111111111111 '
b11111111111111111111111111111111 6
b11111111111111111111111111111111 9
b11111111111111111111111111111111 K
b11111111111111111111111111111111 N
b11111111111111110000000000000000 "
b11111111111111110000000000000000 +
b11111111111111110000000000000000 5
b11111111111111110000000000000000 8
0-
0;
0B
0I
13
b10000 #
b10000 %
b10000 $
#3400
b11111111111111100000000000000000 "
b11111111111111100000000000000000 +
b11111111111111100000000000000000 5
b11111111111111100000000000000000 8
b11111111111111100000000000000000 4
b11111111111111100000000000000000 7
b11111111111111111111111000000000 J
b11111111111111111111111000000000 M
b11111111111111111111111111111110 '
b11111111111111111111111111111110 6
b11111111111111111111111111111110 9
b11111111111111111111111111111110 K
b11111111111111111111111111111110 N
b11111111111111111111111111100000 C
b11111111111111111111111111100000 F
b11111111111111111111111111111110 (
b11111111111111111111111111111110 D
b11111111111111111111111111111110 G
b11111111111111111111111111111110 H
b11111111111111111111111111111110 L
b11111111111111111111111111111000 <
b11111111111111111111111111111000 ?
b11111111111111111111111111111110 )
b11111111111111111111111111111110 =
b11111111111111111111111111111110 @
b11111111111111111111111111111110 A
b11111111111111111111111111111110 E
b11111111111111111111111111111110 *
b11111111111111111111111111111110 /
b11111111111111111111111111111110 2
b11111111111111111111111111111110 :
b11111111111111111111111111111110 >
1-
b10001 #
b10001 %
b10001 $
#3600
b11111111111111000000000000000000 "
b11111111111111000000000000000000 +
b11111111111111000000000000000000 5
b11111111111111000000000000000000 8
b11111111111111000000000000000000 4
b11111111111111000000000000000000 7
b11111111111111111111110000000000 J
b11111111111111111111110000000000 M
b11111111111111111111111111111100 '
b11111111111111111111111111111100 6
b11111111111111111111111111111100 9
b11111111111111111111111111111100 K
b11111111111111111111111111111100 N
b11111111111111111111111111111100 <
b11111111111111111111111111111100 ?
b11111111111111111111111111000000 C
b11111111111111111111111111000000 F
b11111111111111111111111111111100 (
b11111111111111111111111111111100 D
b11111111111111111111111111111100 G
b11111111111111111111111111111100 H
b11111111111111111111111111111100 L
b11111111111111111111111111111111 *
b11111111111111111111111111111111 /
b11111111111111111111111111111111 2
b11111111111111111111111111111111 :
b11111111111111111111111111111111 >
b11111111111111111111111111111100 )
b11111111111111111111111111111100 =
b11111111111111111111111111111100 @
b11111111111111111111111111111100 A
b11111111111111111111111111111100 E
0-
1;
b10010 #
b10010 %
b10010 $
#3800
b11111111111110000000000000000000 "
b11111111111110000000000000000000 +
b11111111111110000000000000000000 5
b11111111111110000000000000000000 8
b11111111111110000000000000000000 4
b11111111111110000000000000000000 7
b11111111111111111111100000000000 J
b11111111111111111111100000000000 M
b11111111111111111111111111111000 '
b11111111111111111111111111111000 6
b11111111111111111111111111111000 9
b11111111111111111111111111111000 K
b11111111111111111111111111111000 N
b11111111111111111111111110000000 C
b11111111111111111111111110000000 F
b11111111111111111111111111111000 (
b11111111111111111111111111111000 D
b11111111111111111111111111111000 G
b11111111111111111111111111111000 H
b11111111111111111111111111111000 L
b11111111111111111111111111111000 )
b11111111111111111111111111111000 =
b11111111111111111111111111111000 @
b11111111111111111111111111111000 A
b11111111111111111111111111111000 E
b11111111111111111111111111111000 <
b11111111111111111111111111111000 ?
b11111111111111111111111111111110 *
b11111111111111111111111111111110 /
b11111111111111111111111111111110 2
b11111111111111111111111111111110 :
b11111111111111111111111111111110 >
1-
b10011 #
b10011 %
b10011 $
#4000
b11111111111100000000000000000000 "
b11111111111100000000000000000000 +
b11111111111100000000000000000000 5
b11111111111100000000000000000000 8
b11111111111100000000000000000000 4
b11111111111100000000000000000000 7
b11111111111111111111111111111100 <
b11111111111111111111111111111100 ?
b11111111111111111111111111110000 C
b11111111111111111111111111110000 F
b11111111111111111111000000000000 J
b11111111111111111111000000000000 M
b11111111111111111111111111110000 '
b11111111111111111111111111110000 6
b11111111111111111111111111110000 9
b11111111111111111111111111110000 K
b11111111111111111111111111110000 N
b11111111111111111111111111111111 *
b11111111111111111111111111111111 /
b11111111111111111111111111111111 2
b11111111111111111111111111111111 :
b11111111111111111111111111111111 >
b11111111111111111111111111111111 )
b11111111111111111111111111111111 =
b11111111111111111111111111111111 @
b11111111111111111111111111111111 A
b11111111111111111111111111111111 E
b11111111111111111111111111110000 (
b11111111111111111111111111110000 D
b11111111111111111111111111110000 G
b11111111111111111111111111110000 H
b11111111111111111111111111110000 L
0-
0;
1B
b10100 #
b10100 %
b10100 $
#4200
b11111111111000000000000000000000 "
b11111111111000000000000000000000 +
b11111111111000000000000000000000 5
b11111111111000000000000000000000 8
b11111111111000000000000000000000 4
b11111111111000000000000000000000 7
b11111111111111111110000000000000 J
b11111111111111111110000000000000 M
b11111111111111111111111111100000 '
b11111111111111111111111111100000 6
b11111111111111111111111111100000 9
b11111111111111111111111111100000 K
b11111111111111111111111111100000 N
b11111111111111111111111111100000 (
b11111111111111111111111111100000 D
b11111111111111111111111111100000 G
b11111111111111111111111111100000 H
b11111111111111111111111111100000 L
b11111111111111111111111111100000 C
b11111111111111111111111111100000 F
b11111111111111111111111111111000 <
b11111111111111111111111111111000 ?
b11111111111111111111111111111110 )
b11111111111111111111111111111110 =
b11111111111111111111111111111110 @
b11111111111111111111111111111110 A
b11111111111111111111111111111110 E
b11111111111111111111111111111110 *
b11111111111111111111111111111110 /
b11111111111111111111111111111110 2
b11111111111111111111111111111110 :
b11111111111111111111111111111110 >
1-
b10101 #
b10101 %
b10101 $
#4400
b11111111110000000000000000000000 "
b11111111110000000000000000000000 +
b11111111110000000000000000000000 5
b11111111110000000000000000000000 8
b11111111110000000000000000000000 4
b11111111110000000000000000000000 7
b11111111111111111100000000000000 J
b11111111111111111100000000000000 M
b11111111111111111111111111000000 '
b11111111111111111111111111000000 6
b11111111111111111111111111000000 9
b11111111111111111111111111000000 K
b11111111111111111111111111000000 N
b11111111111111111111111111000000 (
b11111111111111111111111111000000 D
b11111111111111111111111111000000 G
b11111111111111111111111111000000 H
b11111111111111111111111111000000 L
b11111111111111111111111111111100 <
b11111111111111111111111111111100 ?
b11111111111111111111111111000000 C
b11111111111111111111111111000000 F
b11111111111111111111111111111111 *
b11111111111111111111111111111111 /
b11111111111111111111111111111111 2
b11111111111111111111111111111111 :
b11111111111111111111111111111111 >
b11111111111111111111111111111100 )
b11111111111111111111111111111100 =
b11111111111111111111111111111100 @
b11111111111111111111111111111100 A
b11111111111111111111111111111100 E
0-
1;
b10110 #
b10110 %
b10110 $
#4600
b11111111100000000000000000000000 "
b11111111100000000000000000000000 +
b11111111100000000000000000000000 5
b11111111100000000000000000000000 8
b11111111100000000000000000000000 4
b11111111100000000000000000000000 7
b11111111111111111000000000000000 J
b11111111111111111000000000000000 M
b11111111111111111111111110000000 '
b11111111111111111111111110000000 6
b11111111111111111111111110000000 9
b11111111111111111111111110000000 K
b11111111111111111111111110000000 N
b11111111111111111111111110000000 (
b11111111111111111111111110000000 D
b11111111111111111111111110000000 G
b11111111111111111111111110000000 H
b11111111111111111111111110000000 L
b11111111111111111111111110000000 C
b11111111111111111111111110000000 F
b11111111111111111111111111111000 )
b11111111111111111111111111111000 =
b11111111111111111111111111111000 @
b11111111111111111111111111111000 A
b11111111111111111111111111111000 E
b11111111111111111111111111111000 <
b11111111111111111111111111111000 ?
b11111111111111111111111111111110 *
b11111111111111111111111111111110 /
b11111111111111111111111111111110 2
b11111111111111111111111111111110 :
b11111111111111111111111111111110 >
1-
b10111 #
b10111 %
b10111 $
#4800
b11111111000000000000000000000000 "
b11111111000000000000000000000000 +
b11111111000000000000000000000000 5
b11111111000000000000000000000000 8
b11111111111111111111111111111100 <
b11111111111111111111111111111100 ?
b11111111111111111111111111110000 C
b11111111111111111111111111110000 F
b11111111111111111111111100000000 J
b11111111111111111111111100000000 M
b11111111000000000000000000000000 4
b11111111000000000000000000000000 7
b11111111111111111111111111111111 *
b11111111111111111111111111111111 /
b11111111111111111111111111111111 2
b11111111111111111111111111111111 :
b11111111111111111111111111111111 >
b11111111111111111111111111111111 )
b11111111111111111111111111111111 =
b11111111111111111111111111111111 @
b11111111111111111111111111111111 A
b11111111111111111111111111111111 E
b11111111111111111111111111111111 (
b11111111111111111111111111111111 D
b11111111111111111111111111111111 G
b11111111111111111111111111111111 H
b11111111111111111111111111111111 L
b11111111111111111111111100000000 '
b11111111111111111111111100000000 6
b11111111111111111111111100000000 9
b11111111111111111111111100000000 K
b11111111111111111111111100000000 N
0-
0;
0B
1I
b11000 #
b11000 %
b11000 $
#5000
b11111110000000000000000000000000 "
b11111110000000000000000000000000 +
b11111110000000000000000000000000 5
b11111110000000000000000000000000 8
b11111110000000000000000000000000 4
b11111110000000000000000000000000 7
b11111111111111111111111000000000 '
b11111111111111111111111000000000 6
b11111111111111111111111000000000 9
b11111111111111111111111000000000 K
b11111111111111111111111000000000 N
b11111111111111111111111000000000 J
b11111111111111111111111000000000 M
b11111111111111111111111111100000 C
b11111111111111111111111111100000 F
b11111111111111111111111111111110 (
b11111111111111111111111111111110 D
b11111111111111111111111111111110 G
b11111111111111111111111111111110 H
b11111111111111111111111111111110 L
b11111111111111111111111111111000 <
b11111111111111111111111111111000 ?
b11111111111111111111111111111110 )
b11111111111111111111111111111110 =
b11111111111111111111111111111110 @
b11111111111111111111111111111110 A
b11111111111111111111111111111110 E
b11111111111111111111111111111110 *
b11111111111111111111111111111110 /
b11111111111111111111111111111110 2
b11111111111111111111111111111110 :
b11111111111111111111111111111110 >
1-
b11001 #
b11001 %
b11001 $
